^D:\DESKTOP\IPCA\2018_2019\VISAOPORCOMPUTADOR\VC_PROJ001\VC_PROJ001\DEBUG\MAIN.OBJ|D:\DESKTOP\IPCA\2018_2019\VISAOPORCOMPUTADOR\VC_PROJ001\VC_PROJ001\DEBUG\VC.OBJ
/OUT:"D:\DESKTOP\IPCA\2018_2019\VISAOPORCOMPUTADOR\VC_PROJ001\DEBUG\VC_PROJ001.EXE" /INCREMENTAL /NOLOGO KERNEL32.LIB USER32.LIB GDI32.LIB WINSPOOL.LIB COMDLG32.LIB ADVAPI32.LIB SHELL32.LIB OLE32.LIB OLEAUT32.LIB UUID.LIB ODBC32.LIB ODBCCP32.LIB /MANIFEST /MANIFESTUAC:"level='asInvoker' uiAccess='false'" /manifest:embed /DEBUG:FASTLINK /PDB:"D:\DESKTOP\IPCA\2018_2019\VISAOPORCOMPUTADOR\VC_PROJ001\DEBUG\VC_PROJ001.PDB" /TLBID:1 /DYNAMICBASE /NXCOMPAT /IMPLIB:"D:\DESKTOP\IPCA\2018_2019\VISAOPORCOMPUTADOR\VC_PROJ001\DEBUG\VC_PROJ001.LIB" /MACHINE:X86 DEBUG\MAIN.OBJDEBUG\VC.OBJ
^D:\DESKTOP\IPCA\2018_2019\VISAOPORCOMPUTADOR\TP_VISAO\VC_PROJ001\VC_PROJ001\VC_PROJ001\DEBUG\MAIN.OBJ|D:\DESKTOP\IPCA\2018_2019\VISAOPORCOMPUTADOR\TP_VISAO\VC_PROJ001\VC_PROJ001\VC_PROJ001\DEBUG\VC.OBJ
/OUT:"D:\DESKTOP\IPCA\2018_2019\VISAOPORCOMPUTADOR\TP_VISAO\VC_PROJ001\VC_PROJ001\DEBUG\VC_PROJ001.EXE" /INCREMENTAL /NOLOGO KERNEL32.LIB USER32.LIB GDI32.LIB WINSPOOL.LIB COMDLG32.LIB ADVAPI32.LIB SHELL32.LIB OLE32.LIB OLEAUT32.LIB UUID.LIB ODBC32.LIB ODBCCP32.LIB /MANIFEST /MANIFESTUAC:"level='asInvoker' uiAccess='false'" /manifest:embed /DEBUG:FASTLINK /PDB:"D:\DESKTOP\IPCA\2018_2019\VISAOPORCOMPUTADOR\TP_VISAO\VC_PROJ001\VC_PROJ001\DEBUG\VC_PROJ001.PDB" /TLBID:1 /DYNAMICBASE /NXCOMPAT /IMPLIB:"D:\DESKTOP\IPCA\2018_2019\VISAOPORCOMPUTADOR\TP_VISAO\VC_PROJ001\VC_PROJ001\DEBUG\VC_PROJ001.LIB" /MACHINE:X86 DEBUG\MAIN.OBJDEBUG\VC.OBJ
^D:\DESKTOP\IPCA\2018_2019\VISAOPORCOMPUTADOR\TP_VISAO1\TP_VISAO\VC_PROJ001\VC_PROJ001\VC_PROJ001\DEBUG\MAIN.OBJ|D:\DESKTOP\IPCA\2018_2019\VISAOPORCOMPUTADOR\TP_VISAO1\TP_VISAO\VC_PROJ001\VC_PROJ001\VC_PROJ001\DEBUG\VC.OBJ
/OUT:"D:\DESKTOP\IPCA\2018_2019\VISAOPORCOMPUTADOR\TP_VISAO1\TP_VISAO\VC_PROJ001\VC_PROJ001\DEBUG\VC_PROJ001.EXE" /INCREMENTAL /NOLOGO KERNEL32.LIB USER32.LIB GDI32.LIB WINSPOOL.LIB COMDLG32.LIB ADVAPI32.LIB SHELL32.LIB OLE32.LIB OLEAUT32.LIB UUID.LIB ODBC32.LIB ODBCCP32.LIB /MANIFEST /MANIFESTUAC:"level='asInvoker' uiAccess='false'" /manifest:embed /DEBUG:FASTLINK /PDB:"D:\DESKTOP\IPCA\2018_2019\VISAOPORCOMPUTADOR\TP_VISAO1\TP_VISAO\VC_PROJ001\VC_PROJ001\DEBUG\VC_PROJ001.PDB" /TLBID:1 /DYNAMICBASE /NXCOMPAT /IMPLIB:"D:\DESKTOP\IPCA\2018_2019\VISAOPORCOMPUTADOR\TP_VISAO1\TP_VISAO\VC_PROJ001\VC_PROJ001\DEBUG\VC_PROJ001.LIB" /MACHINE:X86 DEBUG\MAIN.OBJDEBUG\VC.OBJ
